<?xml version="1.0" encoding="UTF-8" standalone="no"?>
<?xml-stylesheet type="text/css" href="svgtest.css"?>
<!DOCTYPE svg PUBLIC "-//W3C//DTD SVG 1.1//EN" "http://www.w3.org/Graphics/SVG/1.1/DTD/svg11.dtd">
<svg width="140" height="170" xmlns="http://www.w3.org/2000/svg" xmlns:xlink="http://www.w3.org/1999/xlink">
	<title>Cat</title>
	<desc>Stick Figure of a Cat</desc>
	<circle cx="70" cy="95" r="50"/>
	<circle cx="55" cy="80" r="5"/>
	<circle cx="85" cy="80" r="5"/>
	<g id="whiskers">
		<line x1="75" y1="95" x2="135" y2="85" style="stroke: black;"/>
		<line x1="75" y1="95" x2="135" y2="105" style="stroke: black;"/>
	</g>
	<use xlink:href="#whiskers" transform="scale(-1 1) translate(-140 0)"/>
	<!-- ears -->
	<polyline points="108 62, 90 10, 70 45, 50, 10, 32, 62" style="stroke: black; fill: none;" />
	<!-- mouth -->
	<polyline points="35 110, 45 120, 95 120, 105, 110" style="stroke: black; fill: none;" />
</svg>